{
    "project_name": "Project Name",
    "docker_slug": "{{ cookiecutter.project_name.lower().replace(' ', '-') }}",
    "git_slug": "docker-{{ cookiecutter.docker_slug }}",
    "description": "Docker image",
    "base_image": "alpine",
    "author": "Author",
    "email": "mail@example.org",
    "docker_name": "{{ cookiecutter.author.lower().replace(' ', '-') }}",
    "git_name": "{{ cookiecutter.docker_name }}",
    "git_server": "gitlab.com",
    "license": ["MIT License", "GNU General Public License v3" ]
}
